
   29.00: ./db/migrate/20220503115342_update_sim_input_type.rb
   29.00: ./db/migrate/20220524173947_update_sih_required_columns.rb
   34.00: ./spec/services/pairings/runner_spec.rb
   37.00: ./db/migrate/20220503121542_update_sim_with_doc_input_type.rb
   37.00: ./db/migrate/20220602135301_update_infosiga_input_type.rb
   39.00: ./spec/models/input_spec.rb
   39.00: ./spec/models/pairing_spec.rb
   75.00: ./db/migrate/20220412200820_create_sim_with_doc_input_type.rb
   75.00: ./db/migrate/20220419144439_create_infosiga_input_type.rb
   75.00: ./db/migrate/20220504133022_create_sih_with_doc_input_type.rb
 1247.00: ./app/services/pairings/pipeline.rb
Total score (lower is better) = 1716
