;SITUACAO;LOTE;LOTE_APRES;IDENT;ESPECIALID;NUM_AIH;NUM_AIH_PR;NUM_AIH_AN;SEQ_AIH5;CMPT;OE_AIH;OE_GESTOR;OE_REGIONA;CNES;MUN_HOSP;DT_EMISSAO;DT_INTERNA;DT_SAIDA;PROC_SOLIC;ST_MUDA_PR;PROC_RE;CAR_INTEN;MODALIDADE;MOT_SAIDA;MED_SOL_ID;MED_SOL_DO;MED_RESP_I;MED_RESP_D;DIR_CLIN_I;DIR_CLIN_D;AUTOR_I;AUTOR_D;DIAG_PR;DIAG_SE1;DIAG_SE2;DIAG_SE3;DIAG_SE4;DIAG_SE5;DIAG_SE6;DIAG_SE7;DIAG_SE8;DIAG_SE9;DIAG_COMP;DIAG_OB;P_DATN;P_SEXO;P_RACA;P_DOC;P_NDOC;P_CNS;P_NAC;P_MUN;P_TLOGR;P_LOGR;P_NL;P_LCOMP;P_BAIRRO;P_LOGR1;P_UF;P_CEP;P_IDADE;PRONTUARIO;ENFERMARIA;LEITO;UINEO_MOT;UTINEO_PES;UTINEO_MES;ATRAB_CNPJ;ATRAB_CBOR;ATRAB_CNAE;ATRAB_VP;PAR_QTD_NV;PAR_QTD_NM;PAR_QTD_AL;PAR_QTD_TR;PAR_QTD_O;PAR_NUM_PN;LV_QTD_F;LV_INSTRU;LV_CID;LV_CONTR1;LV_CONTR2;LV_GES_RIS;VERSAO_SIS;ST_DUPLICI;ST_BLOQUEI;ST_AGRAVO;MOT_BLOQ;IN_GER_INF;GESTOR_IDE;GESTOR_DOC;COD_SOL_LI;ST_INTO;CONTRATO;IVD_SH;IVD_SP;DIARIAS;DIARIAS_UT;DIARIAS_UI;ST_CATETER;COMPLEXIDA;FINACIAME;TIPO_FAEC;CS;NOME;NOME_RESP;NOME_MAE;STATUS;PA_N_AIH;VAL_TOT;PA_CMPT;DIAS_PERM
1;0;1;201902;1;1;3518101302386;0;0;0;201901;S352028840;E350000001;E350000027;2028840;355030;20181210;20181207;20181217;303140151;1;412030110;2;2;15;2;170437426660005;2;170437426660005;2;108553326000003;2;204309524510009;C782;NA;NA;NA;NA;NA;NA;NA;NA;NA;0;0;19840525;M;1;5;;209640250210042;10;NA;81;BELA CINTRA;521;NA;CONSOLAÇÃO;355030;SP;1415010;34;33617942;0;0;0;0;0;0;0;0;0;0;0;0;0;0;0;0;0;NA;0;0;1;1580;0;5;0;0;*;1;12422594142;0;0;7102;0;0;10;0;0;0;2;6;NA;9m584p027fbir00;JOÃO DA SILVA;JOÃO DA SILVA;MARIA DA SILVA;1;3518101302342;1632,7;201901;10
1;0;1;201902;1;1;3518101302386;0;0;0;201901;S352028840;E350000001;E350000027;2028840;355030;20181210;20181207;20181217;303140151;1;412030110;2;2;15;2;170437426660005;2;170437426660005;2;108553326000003;2;204309524510009;C782;NA;NA;NA;NA;NA;NA;NA;NA;NA;0;0;19840525;M;1;4;"123.456.789-10";209640250210042;10;NA;81;BELA CINTRA;521;NA;CONSOLAÇÃO;355030;SP;1415010;34;33617942;0;0;0;0;0;0;0;0;0;0;0;0;0;0;0;0;0;NA;0;0;1;1580;0;5;0;0;*;1;12422594142;0;0;7102;0;0;10;0;0;0;2;6;NA;9m584p027fbir00;JOÃO DA SILVA;JOÃO DA SILVA;MARIA DA SILVA;1;3518101302342;1632,7;201901;10
